{
  "project_info": {
    "project_number": "515267776193",
    "firebase_url": "https://wordingapp-ee3f6.firebaseio.com",
    "project_id": "wordingapp-ee3f6",
    "storage_bucket": "wordingapp-ee3f6.appspot.com"
  },
  "client": [
    {
      "client_info": {
        "mobilesdk_app_id": "1:515267776193:android:809913e5023cef26e58e40",
        "android_client_info": {
          "package_name": "com.berrybelly.wordapp"
        }
      },
      "oauth_client": [
        {
          "client_id": "515267776193-798r45tbqrcqcph6qctg0fgu7ambgo8d.apps.googleusercontent.com",
          "client_type": 3
        }
      ],
      "api_key": [
        {
          "current_key": "AIzaSyBj2etxpkQ-VZw_7SM0ENysoc4Z324xfmQ"
        }
      ],
      "services": {
        "appinvite_service": {
          "other_platform_oauth_client": [
            {
              "client_id": "515267776193-798r45tbqrcqcph6qctg0fgu7ambgo8d.apps.googleusercontent.com",
              "client_type": 3
            }
          ]
        }
      },
      "admob_app_id": "ca-app-pub-5807570271758060~7409322511"
    },
    {
      "client_info": {
        "mobilesdk_app_id": "1:515267776193:android:8324aa05c02aab85e58e40",
        "android_client_info": {
          "package_name": "com.berrybelly.example"
        }
      },
      "oauth_client": [
        {
          "client_id": "515267776193-798r45tbqrcqcph6qctg0fgu7ambgo8d.apps.googleusercontent.com",
          "client_type": 3
        }
      ],
      "api_key": [
        {
          "current_key": "AIzaSyBj2etxpkQ-VZw_7SM0ENysoc4Z324xfmQ"
        }
      ],
      "services": {
        "appinvite_service": {
          "other_platform_oauth_client": [
            {
              "client_id": "515267776193-798r45tbqrcqcph6qctg0fgu7ambgo8d.apps.googleusercontent.com",
              "client_type": 3
            }
          ]
        }
      },
      "admob_app_id": "ca-app-pub-5807570271758060~5026115021"
    }
  ],
  "configuration_version": "1"
}